…
### Recode `race`

We have multiple values for “White” which should be collapsed into one
category.

``` r
stop <- stop %>% 
  mutate(race = fct_collapse(race, `White` = c("White", "Caucasian", "WHITE")))

stop
```

    # A tibble: 60 × 9
       pat_id   age race  sex    hispanic     visit   sbp   dbp    hr
       <fct>  <dbl> <fct> <fct>  <fct>        <fct> <dbl> <dbl> <dbl>
     1 1         52 White Male   Hispanic     1       167    92    89
     2 1         52 White Male   Hispanic     2       156    82    82
     3 1         52 White Male   Hispanic     3       144    71    77
     4 2         29 White Female Not Hispanic 1       158    99    77
     5 2         29 White Female Not Hispanic 2       147    90    71
     6 2         29 White Female Not Hispanic 3       138    82    66
     7 3         31 White Male   Hispanic     1       171   102    88
     8 3         31 White Male   Hispanic     2       161    90    81
     9 3         31 White Male   Hispanic     3       153    82    75
    10 4         43 Other Female Not Hispanic 1       155    88    69
    # … with 50 more rows
    # ℹ Use `print(n = ...)` to see more rows
…
