…
    Rows: 59874 Columns: 17
    ── Column specification ────────────────────────────────────────────────────────
    Delimiter: ","
    chr (13): patientID, age, htn, treat, smoking, race, t2d, gender, rs10757278...
    dbl  (4): numAge, bmi, tchol, sbp

    ℹ Use `spec()` to retrieve the full column specification for this data.
    ℹ Specify the column types or set `show_col_types = FALSE` to quiet this message.

``` r
cvdrisk %>% print()
```

    # A tibble: 59,874 × 17
       patie…¹ age   htn   treat smoking race  t2d   gender numAge   bmi tchol   sbp
       <chr>   <chr> <chr> <chr> <chr>   <chr> <chr> <chr>   <dbl> <dbl> <dbl> <dbl>
     1 HHUID0… 20-40 N     N     N       White N     F          37    22   175   113
     2 HHUID0… 20-40 N     N     N       White N     F          32    25   156   116
     3 HHUID0… 40-55 Y     N     N       White N     F          40    23   243   193
     4 HHUID0… 20-40 Y     Y     N       White N     F          32    23   157   183
     5 HHUID0… 20-40 N     N     N       White N     M          29    17   156   131
     6 HHUID0… 40-55 Y     N     N       White N     F          40    25   193   164
     7 HHUID0… 40-55 N     N     N       Asia… Y     M          43    25   196   120
     8 HHUID0… 20-40 Y     Y     N       White N     F          20    17   238   188
     9 HHUID0… 20-40 N     N     N       Asia… N     F          37    21   195   113
    10 HHUID0… 20-40 N     N     N       White N     M          24    23   240   125
    # … with 59,864 more rows, 5 more variables: rs10757278 <chr>, rs1333049 <chr>,
    #   rs4665058 <chr>, rs8055236 <chr>, cvd <chr>, and abbreviated variable name
    #   ¹​patientID
    # ℹ Use `print(n = ...)` to see more rows, and `colnames()` to see all variable names
…
## Selecting columns; filtering and sorting rows

### `select()`: which columns?

``` r
cvdrisk
```

    # A tibble: 59,874 × 17
       patie…¹ age   htn   treat smoking race  t2d   gender numAge   bmi tchol   sbp
       <chr>   <chr> <chr> <chr> <chr>   <chr> <chr> <chr>   <dbl> <dbl> <dbl> <dbl>
     1 HHUID0… 20-40 N     N     N       White N     F          37    22   175   113
     2 HHUID0… 20-40 N     N     N       White N     F          32    25   156   116
     3 HHUID0… 40-55 Y     N     N       White N     F          40    23   243   193
     4 HHUID0… 20-40 Y     Y     N       White N     F          32    23   157   183
     5 HHUID0… 20-40 N     N     N       White N     M          29    17   156   131
     6 HHUID0… 40-55 Y     N     N       White N     F          40    25   193   164
     7 HHUID0… 40-55 N     N     N       Asia… Y     M          43    25   196   120
     8 HHUID0… 20-40 Y     Y     N       White N     F          20    17   238   188
     9 HHUID0… 20-40 N     N     N       Asia… N     F          37    21   195   113
    10 HHUID0… 20-40 N     N     N       White N     M          24    23   240   125
    # … with 59,864 more rows, 5 more variables: rs10757278 <chr>, rs1333049 <chr>,
    #   rs4665058 <chr>, rs8055236 <chr>, cvd <chr>, and abbreviated variable name
    #   ¹​patientID
    # ℹ Use `print(n = ...)` to see more rows, and `colnames()` to see all variable names
…
``` r
cvdrisk %>% 
  select(numAge, gender, bmi, treat)
```

    # A tibble: 59,874 × 4
       numAge gender   bmi treat
        <dbl> <chr>  <dbl> <chr>
     1     37 F         22 N    
     2     32 F         25 N    
     3     40 F         23 N    
     4     32 F         23 Y    
     5     29 M         17 N    
     6     40 F         25 N    
     7     43 M         25 N    
     8     20 F         17 Y    
     9     37 F         21 N    
    10     24 M         23 N    
    # … with 59,864 more rows
    # ℹ Use `print(n = ...)` to see more rows

``` r
# how many columns do we have? how many rows?
# notice that the column order is also different

# you can also select using index numbers:
cvdrisk %>%
  select(3:7)
```

    # A tibble: 59,874 × 5
       htn   treat smoking race     t2d  
       <chr> <chr> <chr>   <chr>    <chr>
     1 N     N     N       White    N    
     2 N     N     N       White    N    
     3 Y     N     N       White    N    
     4 Y     Y     N       White    N    
     5 N     N     N       White    N    
     6 Y     N     N       White    N    
     7 N     N     N       Asian/PI Y    
     8 Y     Y     N       White    N    
     9 N     N     N       Asian/PI N    
    10 N     N     N       White    N    
    # … with 59,864 more rows
    # ℹ Use `print(n = ...)` to see more rows
…
<figure>
<img src="assets/dplyr_filter.jpg"
data-fig-alt="Cartoon showing three fuzzy monsters either selecting or crossing out rows of a data table. If the type of animal in the table is “otter” and the site is “bay”, a monster is drawing a purple rectangle around the row. If those conditions are not met, another monster is putting a line through the column indicating it will be excluded. Stylized text reads “dplyr::filter() - keep rows that satisfy your conditions.”"
data-fig-align="center" alt="Artwork by @allison_horst" />
<figcaption aria-hidden="true">Artwork by @allison_horst</figcaption>
</figure>

``` r
cvdrisk %>%
  filter(numAge == 19) %>% 
  select(patientID, numAge, smoking)
```

    # A tibble: 716 × 3
       patientID     numAge smoking
       <chr>          <dbl> <chr>  
     1 HHUID00164346     19 N      
     2 HHUID00802705     19 N      
     3 HHUID00782633     19 N      
     4 HHUID00732619     19 N      
     5 HHUID00732812     19 Y      
     6 HHUID00293504     19 N      
     7 HHUID00506980     19 N      
     8 HHUID00944871     19 N      
     9 HHUID00158191     19 N      
    10 HHUID00786858     19 N      
    # … with 706 more rows
    # ℹ Use `print(n = ...)` to see more rows

``` r
cvdrisk %>%
  filter(tchol > 200)
```

    # A tibble: 15,797 × 17
       patie…¹ age   htn   treat smoking race  t2d   gender numAge   bmi tchol   sbp
       <chr>   <chr> <chr> <chr> <chr>   <chr> <chr> <chr>   <dbl> <dbl> <dbl> <dbl>
     1 HHUID0… 40-55 Y     N     N       White N     F          40    23   243   193
     2 HHUID0… 20-40 Y     Y     N       White N     F          20    17   238   188
     3 HHUID0… 20-40 N     N     N       White N     M          24    23   240   125
     4 HHUID0… 20-40 Y     Y     N       White N     F          23    24   235   201
     5 HHUID0… 40-55 N     N     N       White N     F          41    22   243   118
     6 HHUID0… 20-40 N     N     N       White N     F          33    33   204   122
     7 HHUID0… 40-55 N     N     N       Blac… N     M          42    21   244   139
     8 HHUID0… 20-40 N     N     N       Blac… N     M          29    24   242   112
     9 HHUID0… 20-40 N     N     N       Blac… N     M          31    23   219   120
    10 HHUID0… 20-40 N     N     N       White N     M          30    19   228   128
    # … with 15,787 more rows, 5 more variables: rs10757278 <chr>, rs1333049 <chr>,
    #   rs4665058 <chr>, rs8055236 <chr>, cvd <chr>, and abbreviated variable name
    #   ¹​patientID
    # ℹ Use `print(n = ...)` to see more rows, and `colnames()` to see all variable names

``` r
# comparisons: > >= < <= == !=


# check multiple values with the %in% operator, and a vector:
cvdrisk %>%
  filter(race %in% c("Black/AfAm", "AmInd"))
```

    # A tibble: 3,630 × 17
       patie…¹ age   htn   treat smoking race  t2d   gender numAge   bmi tchol   sbp
       <chr>   <chr> <chr> <chr> <chr>   <chr> <chr> <chr>   <dbl> <dbl> <dbl> <dbl>
     1 HHUID0… 40-55 N     N     N       Blac… N     M          42    21   244   139
     2 HHUID0… 20-40 N     N     N       AmInd N     F          28    19   165   124
     3 HHUID0… 20-40 N     N     N       Blac… N     M          29    24   242   112
     4 HHUID0… 20-40 N     N     N       Blac… N     M          31    23   219   120
     5 HHUID0… 20-40 N     N     N       Blac… N     F          34    23   243   113
     6 HHUID0… 20-40 N     N     N       Blac… Y     F          31    19   231    99
     7 HHUID0… 20-40 N     N     N       Blac… N     F          27    20   218   120
     8 HHUID0… 40-55 Y     N     N       Blac… N     F          42    23   228   173
     9 HHUID0… 20-40 N     N     N       Blac… N     F          35    24   241   123
    10 HHUID0… 20-40 N     N     N       Blac… N     M          30    19   243   109
    # … with 3,620 more rows, 5 more variables: rs10757278 <chr>, rs1333049 <chr>,
    #   rs4665058 <chr>, rs8055236 <chr>, cvd <chr>, and abbreviated variable name
    #   ¹​patientID
    # ℹ Use `print(n = ...)` to see more rows, and `colnames()` to see all variable names
…
    # A tibble: 4 × 1
      race      
      <chr>     
    1 White     
    2 Asian/PI  
    3 Black/AfAm
    4 AmInd     

``` r
# BMI is between 25 and 30 (inclusive):
cvdrisk %>%
  filter(between(bmi, 25, 30))
```

    # A tibble: 8,428 × 17
       patie…¹ age   htn   treat smoking race  t2d   gender numAge   bmi tchol   sbp
       <chr>   <chr> <chr> <chr> <chr>   <chr> <chr> <chr>   <dbl> <dbl> <dbl> <dbl>
     1 HHUID0… 20-40 N     N     N       White N     F          32    25   156   116
     2 HHUID0… 40-55 Y     N     N       White N     F          40    25   193   164
     3 HHUID0… 40-55 N     N     N       Asia… Y     M          43    25   196   120
     4 HHUID0… 20-40 N     N     N       Asia… N     F          26    26   160   105
     5 HHUID0… 20-40 N     N     N       White N     F          31    25   194   102
     6 HHUID0… 20-40 N     N     N       White N     F          24    25   159   123
     7 HHUID0… 20-40 N     N     N       White N     F          22    29   156   128
     8 HHUID0… 40-55 Y     N     N       Asia… N     M          43    25   157   177
     9 HHUID0… 40-55 Y     Y     N       White N     M          44    26   233   193
    10 HHUID0… 20-40 N     N     Y       White N     F          30    25   160   108
    # … with 8,418 more rows, 5 more variables: rs10757278 <chr>, rs1333049 <chr>,
    #   rs4665058 <chr>, rs8055236 <chr>, cvd <chr>, and abbreviated variable name
    #   ¹​patientID
    # ℹ Use `print(n = ...)` to see more rows, and `colnames()` to see all variable names

Multiple conditions can be combined with the symbols `&` (ampersand,
“AND”) and `|` (vertical pipe, “OR”).

``` r
cvdrisk %>% 
  filter(between(numAge, 19, 24) & smoking == "Y")
```

    # A tibble: 1,412 × 17
       patie…¹ age   htn   treat smoking race  t2d   gender numAge   bmi tchol   sbp
       <chr>   <chr> <chr> <chr> <chr>   <chr> <chr> <chr>   <dbl> <dbl> <dbl> <dbl>
     1 HHUID0… 20-40 N     N     Y       White N     F          24    35   157   128
     2 HHUID0… 20-40 N     N     Y       White N     M          24    15   198   132
     3 HHUID0… 20-40 Y     Y     Y       White N     M          20    24   243   180
     4 HHUID0… 20-40 N     N     Y       Asia… N     M          24    21   177   107
     5 HHUID0… 20-40 Y     N     Y       White N     M          22    27   159   178
     6 HHUID0… 20-40 Y     Y     Y       White N     F          24    18   160   189
     7 HHUID0… 20-40 N     N     Y       White N     F          21    25   243   122
     8 HHUID0… 20-40 N     N     Y       Asia… Y     M          22    28   156   112
     9 HHUID0… 20-40 N     N     Y       White N     F          21    20   179   122
    10 HHUID0… 20-40 N     N     Y       White N     F          24    19   227   117
    # … with 1,402 more rows, 5 more variables: rs10757278 <chr>, rs1333049 <chr>,
    #   rs4665058 <chr>, rs8055236 <chr>, cvd <chr>, and abbreviated variable name
    #   ¹​patientID
    # ℹ Use `print(n = ...)` to see more rows, and `colnames()` to see all variable names

``` r
cvdrisk %>% 
  filter(between(numAge, 19, 24) | smoking == "Y")
```

    # A tibble: 17,417 × 17
       patie…¹ age   htn   treat smoking race  t2d   gender numAge   bmi tchol   sbp
       <chr>   <chr> <chr> <chr> <chr>   <chr> <chr> <chr>   <dbl> <dbl> <dbl> <dbl>
     1 HHUID0… 20-40 Y     Y     N       White N     F          20    17   238   188
     2 HHUID0… 20-40 N     N     N       White N     M          24    23   240   125
     3 HHUID0… 20-40 Y     Y     N       White N     F          23    24   235   201
     4 HHUID0… 20-40 N     N     Y       White N     F          29    20   164   127
     5 HHUID0… 20-40 N     N     N       White N     F          24    25   159   123
     6 HHUID0… 20-40 N     N     N       White N     F          22    29   156   128
     7 HHUID0… 20-40 Y     N     N       White N     F          24    19   162   188
     8 HHUID0… 20-40 Y     N     Y       Asia… N     F          39    24   172   174
     9 HHUID0… 20-40 N     N     Y       White N     F          40    21   197   112
    10 HHUID0… 20-40 N     N     N       Asia… N     M          23    20   193   115
    # … with 17,407 more rows, 5 more variables: rs10757278 <chr>, rs1333049 <chr>,
    #   rs4665058 <chr>, rs8055236 <chr>, cvd <chr>, and abbreviated variable name
    #   ¹​patientID
    # ℹ Use `print(n = ...)` to see more rows, and `colnames()` to see all variable names

### `arrange()`: in what order should the rows appear?

``` r
# sort by numAge:
cvdrisk %>% 
  filter(between(bmi, 25, 26)) %>% 
  arrange(numAge)
```

    # A tibble: 4,453 × 17
       patie…¹ age   htn   treat smoking race  t2d   gender numAge   bmi tchol   sbp
       <chr>   <chr> <chr> <chr> <chr>   <chr> <chr> <chr>   <dbl> <dbl> <dbl> <dbl>
     1 HHUID0… 0-20  N     N     Y       White N     F          19    25   244   116
     2 HHUID0… 0-20  N     N     N       White N     F          19    25   243   102
     3 HHUID0… 0-20  N     N     N       White N     M          19    25   182   120
     4 HHUID0… 0-20  N     N     N       White N     M          19    25   244   123
     5 HHUID0… 0-20  N     N     N       Asia… N     M          19    25   229   133
     6 HHUID0… 0-20  N     N     N       Asia… N     F          19    25   155   119
     7 HHUID0… 0-20  N     N     N       Asia… N     F          19    25   196   127
     8 HHUID0… 0-20  N     N     N       White N     F          19    25   156   102
     9 HHUID0… 0-20  N     N     N       White N     M          19    25   242   134
    10 HHUID0… 0-20  N     N     N       White N     M          19    25   245   137
    # … with 4,443 more rows, 5 more variables: rs10757278 <chr>, rs1333049 <chr>,
    #   rs4665058 <chr>, rs8055236 <chr>, cvd <chr>, and abbreviated variable name
    #   ¹​patientID
    # ℹ Use `print(n = ...)` to see more rows, and `colnames()` to see all variable names

``` r
# sort by numAge, descending (oldest first):
cvdrisk %>% 
  filter(between(bmi, 25, 26)) %>% 
  arrange(desc(numAge))
```

    # A tibble: 4,453 × 17
       patie…¹ age   htn   treat smoking race  t2d   gender numAge   bmi tchol   sbp
       <chr>   <chr> <chr> <chr> <chr>   <chr> <chr> <chr>   <dbl> <dbl> <dbl> <dbl>
     1 HHUID0… 40-55 Y     Y     N       White N     M          44    26   233   193
     2 HHUID0… 40-55 N     N     N       White N     M          44    25   180   130
     3 HHUID0… 40-55 Y     N     N       White N     F          44    25   158   180
     4 HHUID0… 40-55 Y     Y     N       White N     F          44    25   242   183
     5 HHUID0… 40-55 N     N     N       White N     F          44    25   195   121
     6 HHUID0… 40-55 N     N     N       White N     F          44    25   155   112
     7 HHUID0… 40-55 Y     Y     N       Asia… N     F          44    25   234   181
     8 HHUID0… 40-55 N     N     N       White Y     M          44    25   180   114
     9 HHUID0… 40-55 N     N     N       White N     M          44    25   157   126
    10 HHUID0… 40-55 N     N     N       White Y     M          44    25   242   128
    # … with 4,443 more rows, 5 more variables: rs10757278 <chr>, rs1333049 <chr>,
    #   rs4665058 <chr>, rs8055236 <chr>, cvd <chr>, and abbreviated variable name
    #   ¹​patientID
    # ℹ Use `print(n = ...)` to see more rows, and `colnames()` to see all variable names

``` r
# sort by multiple columns:
cvdrisk %>% 
  arrange(numAge, desc(bmi))
```

    # A tibble: 59,874 × 17
       patie…¹ age   htn   treat smoking race  t2d   gender numAge   bmi tchol   sbp
       <chr>   <chr> <chr> <chr> <chr>   <chr> <chr> <chr>   <dbl> <dbl> <dbl> <dbl>
     1 HHUID0… 0-20  N     N     N       White N     M          19    36   180   111
     2 HHUID0… 0-20  N     N     N       White Y     M          19    36   155   119
     3 HHUID0… 0-20  N     N     N       White N     F          19    36   242   119
     4 HHUID0… 0-20  N     N     N       White N     M          19    36   158   134
     5 HHUID0… 0-20  N     N     N       White N     M          19    36   155   121
     6 HHUID0… 0-20  N     N     N       White Y     M          19    36   157   126
     7 HHUID0… 0-20  N     N     Y       Blac… N     F          19    35   158   117
     8 HHUID0… 0-20  N     N     N       White N     M          19    35   171   123
     9 HHUID0… 0-20  N     N     N       White Y     F          19    35   225    97
    10 HHUID0… 0-20  N     N     N       White Y     M          19    35   186   113
    # … with 59,864 more rows, 5 more variables: rs10757278 <chr>, rs1333049 <chr>,
    #   rs4665058 <chr>, rs8055236 <chr>, cvd <chr>, and abbreviated variable name
    #   ¹​patientID
    # ℹ Use `print(n = ...)` to see more rows, and `colnames()` to see all variable names
…
## `slice_sample()`: Random sampling of rows

meaning of “slice”

``` r
cvdrisk %>% 
  slice_sample(prop=0.2)
```

    # A tibble: 11,974 × 17
       patie…¹ age   htn   treat smoking race  t2d   gender numAge   bmi tchol   sbp
       <chr>   <chr> <chr> <chr> <chr>   <chr> <chr> <chr>   <dbl> <dbl> <dbl> <dbl>
     1 HHUID0… 20-40 N     N     N       White N     M          29    26   196   125
     2 HHUID0… 20-40 Y     N     N       White N     F          23    23   238   172
     3 HHUID0… 20-40 N     N     N       White N     F          27    28   182   126
     4 HHUID0… 20-40 N     N     N       Asia… N     M          36    22   159   126
     5 HHUID0… 20-40 N     N     N       Asia… N     F          30    29   208   117
     6 HHUID0… 20-40 N     N     N       Blac… N     F          39    25   205   127
     7 HHUID0… 20-40 Y     N     N       White N     F          33    22   243   183
     8 HHUID0… 20-40 Y     Y     N       White N     F          38    18   242   188
     9 HHUID0… 20-40 N     N     N       Blac… N     M          28    19   242   116
    10 HHUID0… 40-55 N     N     N       White N     M          41    20   160   110
    # … with 11,964 more rows, 5 more variables: rs10757278 <chr>, rs1333049 <chr>,
    #   rs4665058 <chr>, rs8055236 <chr>, cvd <chr>, and abbreviated variable name
    #   ¹​patientID
    # ℹ Use `print(n = ...)` to see more rows, and `colnames()` to see all variable names
…
